<svg width="30" height="30" viewBox="0 0 30 30" fill="none" xmlns="http://www.w3.org/2000/svg">
<path fill-rule="evenodd" clip-rule="evenodd" d="M15 7.2C12.882 7.2 12.6162 7.209 11.784 7.2468C10.9536 7.2846 10.3866 7.4166 9.8904 7.6092C9.37003 7.80518 8.89867 8.11232 8.5092 8.5092C8.11226 8.89884 7.80511 9.37041 7.6092 9.891C7.4166 10.3866 7.2852 10.9536 7.2468 11.784C7.209 12.6162 7.2 12.882 7.2 15C7.2 17.118 7.209 17.3838 7.2468 18.216C7.2846 19.0464 7.4166 19.6134 7.6092 20.109C7.809 20.622 8.0754 21.057 8.5092 21.4908C8.89867 21.8877 9.37003 22.1948 9.8904 22.3908C10.3866 22.5828 10.9536 22.7148 11.784 22.7532C12.6162 22.791 12.882 22.8 15 22.8C17.118 22.8 17.3838 22.791 18.216 22.7532C19.0464 22.7154 19.6134 22.5834 20.109 22.3908C20.6296 22.1949 21.1012 21.8878 21.4908 21.4908C21.8877 21.1012 22.1949 20.6296 22.3908 20.109C22.5828 19.6134 22.7148 19.0464 22.7532 18.216C22.791 17.3838 22.8 17.118 22.8 15C22.8 12.882 22.791 12.6162 22.7532 11.784C22.7154 10.9536 22.5834 10.3866 22.3902 9.891C22.1945 9.37047 21.8875 8.8989 21.4908 8.5092C21.1012 8.11224 20.6296 7.80509 20.109 7.6092C19.6134 7.4172 19.0464 7.2852 18.216 7.2468C17.3838 7.209 17.118 7.2 15 7.2ZM15 8.6052C17.0826 8.6052 17.3292 8.6136 18.1518 8.6508C18.912 8.6856 19.3254 8.8128 19.6002 8.9196C19.9644 9.0612 20.2242 9.2298 20.4972 9.5028C20.7702 9.7758 20.9388 10.0356 21.0804 10.3998C21.1872 10.6746 21.3144 11.0874 21.3492 11.8482C21.3864 12.6702 21.3948 12.9174 21.3948 15C21.3948 17.0826 21.3864 17.3292 21.3492 18.1518C21.3144 18.9126 21.1872 19.3254 21.0804 19.6002C20.9555 19.939 20.7562 20.2455 20.4972 20.4972C20.2455 20.7562 19.939 20.9555 19.6002 21.0804C19.3254 21.1872 18.912 21.3144 18.1518 21.3492C17.3298 21.3864 17.0826 21.3948 15 21.3948C12.9174 21.3948 12.6702 21.3864 11.8482 21.3492C11.0874 21.3144 10.6746 21.1872 10.3998 21.0804C10.061 20.9555 9.75446 20.7562 9.5028 20.4972C9.24386 20.2455 9.04458 19.939 8.9196 19.6002C8.8128 19.3254 8.6856 18.9126 8.6508 18.1518C8.6136 17.3298 8.6052 17.0826 8.6052 15C8.6052 12.9174 8.6136 12.6708 8.6508 11.8482C8.6856 11.0874 8.8128 10.6746 8.9196 10.3998C9.0612 10.0356 9.2298 9.7758 9.5028 9.5028C9.75448 9.24382 10.061 9.04454 10.3998 8.9196C10.6746 8.8128 11.0874 8.6856 11.8482 8.6508C12.6702 8.6136 12.9174 8.6052 15 8.6052" fill="#FDFDFD"/>
<path fill-rule="evenodd" clip-rule="evenodd" d="M15 10.8C13.8861 10.8 12.8178 11.2425 12.0302 12.0301C11.2425 12.8178 10.8 13.8861 10.8 15C10.8 16.1139 11.2425 17.1822 12.0302 17.9698C12.8178 18.7575 13.8861 19.2 15 19.2C16.1139 19.2 17.1822 18.7575 17.9699 17.9698C18.7575 17.1822 19.2 16.1139 19.2 15C19.2 13.8861 18.7575 12.8178 17.9699 12.0301C17.1822 11.2425 16.1139 10.8 15 10.8ZM15 17.7C14.2839 17.7 13.5972 17.4155 13.0908 16.9092C12.5845 16.4028 12.3 15.7161 12.3 15C12.3 14.2839 12.5845 13.5972 13.0908 13.0908C13.5972 12.5845 14.2839 12.3 15 12.3C15.7161 12.3 16.4028 12.5845 16.9092 13.0908C17.4155 13.5972 17.7 14.2839 17.7 15C17.7 15.7161 17.4155 16.4028 16.9092 16.9092C16.4028 17.4155 15.7161 17.7 15 17.7ZM20.22 10.86C20.22 10.9861 20.1952 11.1109 20.1469 11.2274C20.0987 11.3438 20.028 11.4497 19.9388 11.5388C19.8497 11.628 19.7439 11.6987 19.6274 11.7469C19.5109 11.7952 19.3861 11.82 19.26 11.82C19.1339 11.82 19.0091 11.7952 18.8926 11.7469C18.7762 11.6987 18.6703 11.628 18.5812 11.5388C18.492 11.4497 18.4213 11.3438 18.3731 11.2274C18.3248 11.1109 18.3 10.9861 18.3 10.86C18.3 10.6054 18.4011 10.3612 18.5812 10.1812C18.7612 10.0011 19.0054 9.89999 19.26 9.89999C19.5146 9.89999 19.7588 10.0011 19.9388 10.1812C20.1189 10.3612 20.22 10.6054 20.22 10.86Z" fill="#FDFDFD"/>
</svg>
